<?xml version="1.0" encoding="utf-8"?>

<!-- License Agreement at http://iconmonstr.com/license/ -->

<!DOCTYPE svg PUBLIC "-//W3C//DTD SVG 1.1//EN" "http://www.w3.org/Graphics/SVG/1.1/DTD/svg11.dtd">
<svg version="1.1" xmlns="http://www.w3.org/2000/svg" xmlns:xlink="http://www.w3.org/1999/xlink" x="0px" y="0px"
	 width="512px" height="512px" viewBox="0 0 512 512" style="enable-background:new 0 0 512 512;" xml:space="preserve">
<path id="calculator-10-icon" d="M231.573,258.317c5.152-3.687,10.974-5.396,16.697-5.396c12.151,0.001,23.853,7.712,27.709,20.572
	c-4.923-3.771-10.675-5.609-16.48-5.609c-5.907,0-11.869,1.905-17.062,5.622c-10.294,7.364-14.832,19.884-10.845,31.741
	C215.554,293.798,215.444,269.854,231.573,258.317z M272.411,412.621c12.818,4.286,52.504,15.21,98.499,49.379
	c29.253-20.926,57.273-40.974,85.051-60.843c-22.129-30.935-16.078-52.603-38.06-83.328c-9.808-13.707-18.508-22.06-34.574-19.24
	c-1.499,0.264-3.038,0.545-4.604,0.838l7.738,10.815c4.729,6.603-5.243,13.442-9.833,7.033l-6.904-9.651
	c-2.448-3.425-6.702-5.052-10.796-4.159c-5.213,1.136-10.492,2.333-15.666,3.534l9.391,13.123c4.739,6.626-5.259,13.432-9.833,7.032
	l-8.126-11.358c-2.528-3.536-6.938-5.111-11.066-4.095c-6.023,1.481-11.467,2.85-15.948,3.996l9.935,13.885
	c4.735,6.623-5.257,13.433-9.835,7.033l-32.664-45.978c-5.305-7.42-15.625-9.134-23.051-3.825c-7.42,5.309-9.135,15.63-3.824,23.054
	l51.871,72.906c-15.989-5.879-40.571-8.392-45.108,8.115C252.302,400.717,260.199,408.537,272.411,412.621z M196.909,200.865
	h-33.477v26.394h33.477V200.865z M56.039,50v319.232h189.416c4.011-3.811,8.796-6.65,14.36-8.518L243.3,338.239H87.032V80.995
	h185.96v158.574c23.531,13.644,30.994,56.383,30.994,56.383V50H56.039z M196.909,245.313h-33.477v26.394h33.477V245.313z
	 M163.433,316.156h33.477v-26.392h-33.477V316.156z M249.753,200.865h-33.479v26.394h33.479V200.865z M143.782,245.313h-33.478
	v26.394h33.478V245.313z M110.305,316.156h33.478v-26.392h-33.478V316.156z M249.753,104.627H110.305v75.434h139.448V104.627z
	 M166.372,161.165h-8.048v-28.194h-0.11l-6.787,3.23l-1.368-6.24l9.415-4.38h6.898V161.165z M199.413,161.165h-25.237v-5.036
	c10.15-9.184,16.122-14.061,16.261-19.271c0-6.071-7.479-6.824-13.468-2.242l-2.354-5.967c8-6.041,24.143-5.334,24.143,7.499
	c0,9.074-12.756,18.175-12.756,18.175h13.412V161.165z M216.079,161.769c-4.6,0-8.484-1.206-10.565-2.521l1.695-6.24
	c1.479,0.767,4.874,2.191,8.269,2.191c4.322,0,6.513-2.082,6.513-4.763c0-3.506-3.503-5.095-7.171-5.095h-3.395v-5.966h3.23
	c2.792-0.054,6.352-1.095,6.352-4.104c0-2.136-1.752-3.724-5.256-3.724c-2.902,0-5.967,1.26-7.446,2.135l-1.696-6.021
	c2.135-1.37,6.404-2.684,11.003-2.684c7.608,0,11.825,3.997,11.825,8.868c0,3.777-2.135,6.733-6.516,8.269v0.108
	c4.27,0.767,7.72,3.996,7.72,8.649C230.641,157.169,225.111,161.769,216.079,161.769z M143.782,200.865h-33.478v26.394h33.478
	V200.865z"/>
</svg>
